-------------------------------------------------------------------------------
Test set: com.marmeladka.heroku2.Heroku2ApplicationTests
-------------------------------------------------------------------------------
Tests run: 1, Failures: 0, Errors: 0, Skipped: 0, Time elapsed: 8.212 s - in com.marmeladka.heroku2.Heroku2ApplicationTests
